[
    
    {
        "name": "Programación",
        "href": "/programacion",
        "title": "Programación 24H24L"
    },
    {
        "name": "Patrocinadores",
        "href": "/patrocinadores",
        "title": "Patrocinadores 24H24L"
    },
    {
        "name": "Participantes",
        "href": "/participantes",
        "title": "Participantes 24H24L"
    },
    {
        "name": "Sorteo",
        "href": "/sorteo",
        "title": "Sorteos 24H24L Edición Programación"
    },
    {
        "name": "Contacto",
        "href": "/contacto",
        "title": "Contacta con 24H24L"
    }
]